Guided Exercise 7 - Modeling
…
Exercise 4

The tree divide the data into 8 groups.

ames_train_predictions <-
  decision_tree_fit %>% 
    predict(ames_train)
ames_train_predictions

# A tibble: 1,608 x 1
   .pred
   <dbl>
 1  195.
 2  120.
 3  152.
 4  257.
 5  195.
 6  152.
 7  152.
 8  195.
 9  195.
10  152.
#  with 1,598 more rows

Exercise 5

The model make 1608 predictions.

bind_cols(ames_train_predictions, ames_train)

# A tibble: 1,608 x 75
   .pred MS_SubClass    MS_Zoning   Lot_Frontage Lot_Area Street Alley Lot_Shape
   <dbl> <fct>          <fct>              <dbl>    <int> <fct>  <fct> <fct>    
 1  195. One_Story_194 Residentia          141    31770 Pave   No_A Slightly
 2  120. One_Story_194 Residentia           80    11622 Pave   No_A Regular  
 3  152. One_Story_194 Residentia           81    14267 Pave   No_A Slightly
 4  257. One_Story_194 Residentia           93    11160 Pave   No_A Regular  
 5  195. Two_Story_194 Residentia           74    13830 Pave   No_A Slightly
 6  152. One_Story_PUD Residentia           41     4920 Pave   No_A Regular  
 7  152. One_Story_PUD Residentia           43     5005 Pave   No_A Slightly
 8  195. One_Story_PUD Residentia           39     5389 Pave   No_A Slightly
 9  195. Two_Story_194 Residentia           60     7500 Pave   No_A Regular  
10  152. One_Story_194 Residentia            0     7980 Pave   No_A Slightly
#  with 1,598 more rows, and 67 more variables: Land_Contour <fct>,
#   Utilities <fct>, Lot_Config <fct>, Land_Slope <fct>, Neighborhood <fct>,
#   Condition_1 <fct>, Condition_2 <fct>, Bldg_Type <fct>, House_Style <fct>,
#   Overall_Cond <fct>, Year_Built <int>, Year_Remod_Add <int>,
#   Roof_Style <fct>, Roof_Matl <fct>, Exterior_1st <fct>, Exterior_2nd <fct>,
#   Mas_Vnr_Type <fct>, Mas_Vnr_Area <dbl>, Exter_Cond <fct>, Foundation <fct>,
#   Bsmt_Cond <fct>, Bsmt_Exposure <fct>, BsmtFin_Type_1 <fct>,
#   BsmtFin_SF_1 <dbl>, BsmtFin_Type_2 <fct>, BsmtFin_SF_2 <dbl>,
#   Bsmt_Unf_SF <dbl>, Total_Bsmt_SF <dbl>, Heating <fct>, Heating_QC <fct>,
…
